<?xml version="1.0" encoding="UTF-8"?>
<svg width="30px" height="30px" viewBox="0 0 30 30" version="1.1" xmlns="http://www.w3.org/2000/svg" xmlns:xlink="http://www.w3.org/1999/xlink">
    <!-- Generator: Sketch 49.3 (51167) - http://www.bohemiancoding.com/sketch -->
    <title>download</title>
    <desc>Created with Sketch.</desc>
    <defs>
        <linearGradient x1="50%" y1="0%" x2="50%" y2="100%" id="linearGradient-1">
            <stop stop-color="#FFFFFF" stop-opacity="0.5" offset="0%"></stop>
            <stop stop-color="#FFFFFF" stop-opacity="0.5" offset="100%"></stop>
        </linearGradient>
    </defs>
    <g id="Final-Designs" stroke="none" stroke-width="1" fill="none" fill-rule="evenodd">
        <g id="Profile-Copy-66" transform="translate(-28.000000, -319.000000)">
            <g id="download" transform="translate(28.000000, 319.000000)">
                <g id="Group">
                    <g id="eos-b-link" fill="#000000" fill-rule="nonzero">
                        <circle id="eos-b" cx="15" cy="15" r="15"></circle>
                    </g>
                    <g id="eos-b-link" fill="#282828">
                        <circle id="eos-b" cx="15" cy="15" r="15"></circle>
                    </g>
                    <g id="eos-b-link" style="mix-blend-mode: soft-light;" fill="url(#linearGradient-1)">
                        <circle id="eos-b" cx="15" cy="15" r="15"></circle>
                    </g>
                    <circle id="Oval" stroke-opacity="0.097" stroke="#000000" cx="15" cy="15" r="14.5"></circle>
                </g>
                <path d="M8.17737475,19.9136729 L10.9532235,15.0151232 L9.9435699,11.8444354 L8.17737475,19.9136729 Z M11.2178759,15.8462302 L7.96130043,21.59312 L13.047879,21.59312 L11.2178759,15.8462302 Z M8.52551912,22.23312 L14.429751,25.9327119 L13.2516765,22.23312 L8.52551912,22.23312 Z M11.3832428,14.2562668 L14.67952,8.43931511 L14.67952,4.6029676 L10.2404832,10.667577 L11.3832428,14.2562668 Z M9.5723277,10.547336 C9.5817477,10.5001881 9.6016925,10.4557746 9.6303992,10.4175057 L14.7413011,3.43499472 C14.8095479,3.34175594 14.9074583,3.30136282 15.00336,3.30346251 C15.0992617,3.30136282 15.1971721,3.34175594 15.2654189,3.43499472 L20.3763208,10.4175057 C20.4050275,10.4557746 20.4249723,10.5001881 20.4343923,10.547336 L22.9040951,21.8306977 C22.943047,21.9743112 22.87475,22.1241518 22.7497227,22.1935259 L15.1771115,26.9385243 C15.1204789,26.9740103 15.06082,26.9893417 15.00336,26.9885707 C14.9459,26.9893417 14.8862411,26.9740103 14.8296085,26.9385243 L7.25699728,22.1935259 C7.13197005,22.1241518 7.06367296,21.9743112 7.10262492,21.8306977 L9.5723277,10.547336 Z M15.00336,25.6247806 L16.0833788,22.23312 L13.9233412,22.23312 L15.00336,25.6247806 Z M15.576969,25.9327119 L21.4812009,22.23312 L16.7550435,22.23312 L15.576969,25.9327119 Z M20.0631501,11.8444354 L19.0534965,15.0151232 L21.8293452,19.9136729 L20.0631501,11.8444354 Z M19.7662368,10.667577 L15.3272,4.6029676 L15.3272,8.43931511 L18.6234772,14.2562668 L19.7662368,10.667577 Z M22.0454196,21.59312 L18.7888441,15.8462302 L16.958841,21.59312 L22.0454196,21.59312 Z M15.00336,9.16597352 L11.6478952,15.0873737 L13.7195436,21.59312 L16.2871764,21.59312 L18.3588248,15.0873737 L15.00336,9.16597352 Z M22.316153,22.0708842 L22.59456,21.59312 L22.0454196,21.59312 L22.316153,22.0708842 Z M7.41216,21.59312 L7.690567,22.0708842 L7.96130043,21.59312 L7.41216,21.59312 Z" id="Shape" fill="#FFFFFF" fill-rule="nonzero"></path>
            </g>
        </g>
    </g>
</svg>