<?xml version="1.0" encoding="UTF-8"?>
<svg width="19px" height="21px" viewBox="0 0 19 21" version="1.1" xmlns="http://www.w3.org/2000/svg" xmlns:xlink="http://www.w3.org/1999/xlink">
    <!-- Generator: Sketch 49.3 (51167) - http://www.bohemiancoding.com/sketch -->
    <title>Fill 508</title>
    <desc>Created with Sketch.</desc>
    <defs></defs>
    <g id="Final-Designs" stroke="none" stroke-width="1" fill="none" fill-rule="evenodd">
        <g id="Profile-Copy-55" transform="translate(-334.000000, -357.000000)" fill="#FFFFFF">
            <g id="Fill-508" transform="translate(334.000000, 357.000000)">
                <path d="M11.5757,12.9058 C11.7117,12.9688 11.8557,12.9998 11.9997,12.9998 C12.2297,12.9998 12.4567,12.9208 12.6397,12.7678 L18.6397,7.7678 C18.8557,7.5888 18.9867,7.3258 18.9987,7.0458 C19.0117,6.7648 18.9057,6.4918 18.7067,6.2928 L12.7067,0.2928 C12.3167,-0.0972 11.6837,-0.0972 11.2927,0.2928 L8.9997,2.5858 L7.7067,1.2928 C7.3167,0.9028 6.6837,0.9028 6.2927,1.2928 L0.2927,7.2928 C-0.0973,7.6838 -0.0973,8.3168 0.2927,8.7068 L12.2927,20.7068 L13.7067,19.2928 L7.4137,12.9998 L10.9997,9.4138 L10.9997,11.9998 C10.9997,12.3878 11.2247,12.7408 11.5757,12.9058"></path>
            </g>
        </g>
    </g>
</svg>