<?xml version="1.0" encoding="UTF-8"?>
<svg width="18px" height="16px" viewBox="0 0 18 16" version="1.1" xmlns="http://www.w3.org/2000/svg" xmlns:xlink="http://www.w3.org/1999/xlink">
    <!-- Generator: Sketch 49.3 (51167) - http://www.bohemiancoding.com/sketch -->
    <title>Fill 495</title>
    <desc>Created with Sketch.</desc>
    <defs></defs>
    <g id="Final-Designs" stroke="none" stroke-width="1" fill="none" fill-rule="evenodd">
        <g id="Profile-Copy-55" transform="translate(-283.000000, -360.000000)" fill="#FFFFFF">
            <g id="Fill-495" transform="translate(283.000000, 360.000000)">
                <path d="M13,0 C11.406,0 9.929,0.837 9,2.08 C8.071,0.837 6.594,0 5,0 C2.243,0 0,2.243 0,5 C0,10.491 8.124,15.632 8.47,15.848 C8.632,15.949 8.816,16 9,16 C9.184,16 9.368,15.949 9.53,15.848 C9.876,15.632 18,10.491 18,5 C18,2.243 15.757,0 13,0"></path>
            </g>
        </g>
    </g>
</svg>