<?xml version="1.0" encoding="UTF-8"?>
<svg width="30px" height="30px" viewBox="0 0 30 30" version="1.1" xmlns="http://www.w3.org/2000/svg" xmlns:xlink="http://www.w3.org/1999/xlink">
    <!-- Generator: Sketch 49.3 (51167) - http://www.bohemiancoding.com/sketch -->
    <title>download</title>
    <desc>Created with Sketch.</desc>
    <defs>
        <linearGradient x1="50%" y1="0%" x2="50%" y2="100%" id="linearGradient-1">
            <stop stop-color="#FFFFFF" stop-opacity="0.5" offset="0%"></stop>
            <stop stop-color="#FFFFFF" stop-opacity="0.5" offset="100%"></stop>
        </linearGradient>
    </defs>
    <g id="Final-Designs" stroke="none" stroke-width="1" fill="none" fill-rule="evenodd">
        <g id="Profile-Copy-66" transform="translate(-26.000000, -464.000000)">
            <g id="download" transform="translate(26.000000, 464.000000)">
                <g id="omg-b-link" fill="#000000" fill-rule="nonzero">
                    <circle id="omg-b" cx="15" cy="15" r="15"></circle>
                </g>
                <g id="omg-b-link" fill="#1A53F0" fill-rule="nonzero">
                    <circle id="omg-b" cx="15" cy="15" r="15"></circle>
                </g>
                <g id="omg-b-link" style="mix-blend-mode: soft-light;" fill="url(#linearGradient-1)" fill-rule="nonzero">
                    <circle id="omg-b" cx="15" cy="15" r="15"></circle>
                </g>
                <circle id="Oval" stroke-opacity="0.097" stroke="#000000" cx="15" cy="15" r="14.5"></circle>
                <g id="Group" transform="translate(6.000000, 7.000000)">
                    <g id="omg-e-link" fill="#000000" fill-rule="nonzero">
                        <path d="M4.8562452,9.2899744 C2.45325524,9.2899744 0.50528911,11.2397728 0.50528911,13.6449872 C0.50528911,16.0502016 2.45351304,18 4.856503,18 C7.2597508,18 9.2077169,16.0502016 9.2077169,13.6449872 C9.2077169,11.2397728 7.2597508,9.2899744 4.856503,9.2899744 L4.8562452,9.2899744 Z M4.8562452,16.6826382 C3.1810356,16.6826382 1.82292475,15.323337 1.82292475,13.646531 C1.82292475,11.969725 3.1810356,10.6104237 4.8562452,10.6104237 C6.5317126,10.6104237 7.8898235,11.969725 7.8898235,13.646531 C7.8869876,15.3220505 6.5304236,16.6798079 4.8562452,16.6826382 Z M14.1487861,8.5e-07 C11.7457961,8.5e-07 9.7975722,1.94979921 9.7975722,4.3550137 C9.7975722,6.7602281 11.7457961,8.7100265 14.1487861,8.7100265 C16.5520339,8.7100265 18.5,6.7602281 18.5,4.3550137 C18.5,1.94979921 16.5520339,8.5e-07 14.1487861,8.5e-07 Z M14.1487861,7.3926647 C12.4735765,7.3926647 11.1154656,6.0333634 11.1154656,4.3565574 C11.1154656,2.67975143 12.4735765,1.3204502 14.1487861,1.3204502 C15.8242535,1.3204502 17.1823644,2.67975143 17.1823644,4.3565574 C17.1795285,6.032077 15.8229645,7.3898344 14.1487861,7.3926647 Z M4.8562452,8.5e-07 C2.78479103,-0.00128564 0.99924135,1.45887611 0.58727075,3.4910096 C0.17555795,5.5228857 1.25163135,7.5640246 3.1598957,8.3709087 C5.06816,9.1775355 7.2803751,8.5265735 8.4484845,6.8142605 C9.6168517,5.1019475 9.4178271,2.8029968 7.9725785,1.31736263 L9.2064279,1.31736263 L9.2064279,8.5e-07 L4.8562452,8.5e-07 Z M7.8898235,4.3550137 C7.8898235,6.0318197 6.5317126,7.3911209 4.8562452,7.3911209 C3.1810356,7.3911209 1.82292475,6.0318197 1.82292475,4.3550137 C1.82292475,2.67820765 3.1810356,1.31890642 4.8562452,1.31890642 C6.5309392,1.32096479 7.8885345,2.67872224 7.8913703,4.3550137 L7.8898235,4.3550137 Z" id="omg-e"></path>
                    </g>
                    <g id="omg-e-link" fill="#FFFFFF">
                        <path d="M4.8562452,9.2899744 C2.45325524,9.2899744 0.50528911,11.2397728 0.50528911,13.6449872 C0.50528911,16.0502016 2.45351304,18 4.856503,18 C7.2597508,18 9.2077169,16.0502016 9.2077169,13.6449872 C9.2077169,11.2397728 7.2597508,9.2899744 4.856503,9.2899744 L4.8562452,9.2899744 Z M4.8562452,16.6826382 C3.1810356,16.6826382 1.82292475,15.323337 1.82292475,13.646531 C1.82292475,11.969725 3.1810356,10.6104237 4.8562452,10.6104237 C6.5317126,10.6104237 7.8898235,11.969725 7.8898235,13.646531 C7.8869876,15.3220505 6.5304236,16.6798079 4.8562452,16.6826382 Z M14.1487861,8.5e-07 C11.7457961,8.5e-07 9.7975722,1.94979921 9.7975722,4.3550137 C9.7975722,6.7602281 11.7457961,8.7100265 14.1487861,8.7100265 C16.5520339,8.7100265 18.5,6.7602281 18.5,4.3550137 C18.5,1.94979921 16.5520339,8.5e-07 14.1487861,8.5e-07 Z M14.1487861,7.3926647 C12.4735765,7.3926647 11.1154656,6.0333634 11.1154656,4.3565574 C11.1154656,2.67975143 12.4735765,1.3204502 14.1487861,1.3204502 C15.8242535,1.3204502 17.1823644,2.67975143 17.1823644,4.3565574 C17.1795285,6.032077 15.8229645,7.3898344 14.1487861,7.3926647 Z M4.8562452,8.5e-07 C2.78479103,-0.00128564 0.99924135,1.45887611 0.58727075,3.4910096 C0.17555795,5.5228857 1.25163135,7.5640246 3.1598957,8.3709087 C5.06816,9.1775355 7.2803751,8.5265735 8.4484845,6.8142605 C9.6168517,5.1019475 9.4178271,2.8029968 7.9725785,1.31736263 L9.2064279,1.31736263 L9.2064279,8.5e-07 L4.8562452,8.5e-07 Z M7.8898235,4.3550137 C7.8898235,6.0318197 6.5317126,7.3911209 4.8562452,7.3911209 C3.1810356,7.3911209 1.82292475,6.0318197 1.82292475,4.3550137 C1.82292475,2.67820765 3.1810356,1.31890642 4.8562452,1.31890642 C6.5309392,1.32096479 7.8885345,2.67872224 7.8913703,4.3550137 L7.8898235,4.3550137 Z" id="omg-e"></path>
                    </g>
                </g>
            </g>
        </g>
    </g>
</svg>